[
  {
    "description": "Système d'exploitation (OS) utilisant Tor et mettant l'accent sur l'anonymat et la sécurité. Des images pour machine virtuelle sont disponibles."
  },
  {
    "description": " Android application compatible with ZX2C4's Pass command line application.",
    "slug": "android-password-store",
    "url": "https://github.com/zeapo/Android-Password-Store/blob/master/README.md",
    "wikipedia_url": ""
  },
  {
    "description": "Implémentation PBX supportant VoIP/SIP.",
    "slug": "asterisk",
    "url": "http://www.asterisk.org/",
    "wikipedia_url": "https://fr.wikipedia.org/wiki/Asterisk_%28logiciel%29"
  },
  {
    "description": "Un panel complet de services gratuits et soucieux de la vie privée.",
    "slug": "autistici-inventati",
    "url": "https://www.autistici.org/",
    "wikipedia_url": ""
  },
  {
    "description": "Monnaie numérique P2P sans autorité centrale.",
    "notes": "Please note that new, digital currencies may be very volatile. Complete loss of your investment is possible for a number of reasons (software errors or attacks, identity theft, etc.). Be prepared!",
    "slug": "bitcoin",
    "url": "https://bitcoin.org/fr/",
    "wikipedia_url": "https://fr.wikipedia.org/wiki/Bitcoin"
  },
  {
    "description": "Le service de messagerie P2P décentralisé et chiffré basé sur la technologie Bitcoin.",
    "notes": "Bitmessage est une alternative au courrier électronique prometteuse, mais il n'a pas été audité par des professionels en sécurité. A utiliser à vos risques et périls. Si vous décidez d'essayer Bitmessage, soyez sûre de générer un ID complètement aléatoire afin de grandement réduire le risque de collision des ID.",
    "slug": "bitmessage",
    "url": "https://bitmessage.org/wiki/Main_Page",
    "wikipedia_url": "https://fr.wikipedia.org/wiki/Bitmessage"
  },
  {
    "description": "Plate-forme informatique entreprise compatible avec RHEL.",
    "slug": "centos",
    "url": "https://www.centos.org/",
    "wikipedia_url": "https://fr.wikipedia.org/wiki/CentOS"
  },
  {
    "description": "Messagerie instantanée chiffrée avec OMEMO ou OTR pour iOS.",
    "slug": "chatsecure",
    "url": "https://chatsecure.org/",
    "wikipedia_url": "https://en.wikipedia.org/wiki/The_Guardian_Project_(software)#ChatSecure"
  },
  {
    "description": "Cjdns is a networking protocol, a system of digital rules for message exchange between computers. “Instead of letting other computers connect to you through a shared IP address which anyone can use, cjdns only lets computers talk to one other after they have verified each other cryptographically. ",
    "slug": "cjdns",
    "url": "https://github.com/cjdelisle/cjdns",
    "wikipedia_url": "https://en.wikipedia.org/wiki/Cjdns"
  },
  {
    "description": "Conversations est un client XMPP/Jabber open source pour les smartphones Android 4.0+.",
    "slug": "conversations",
    "url": "https://github.com/siacs/Conversations",
    "wikipedia_url": ""
  },
  {
    "description": "Un PaaS personnel que vous pouvez héberger, modifier et supprimer.",
    "slug": "cozy",
    "url": "http://cozy.io/fr/",
    "wikipedia_url": ""
  },
  {
    "description": "Messagerie instantanée privée et chiffrée dans le navigateur web.",
    "slug": "cryptocat",
    "url": "https://crypto.cat/fr.html",
    "wikipedia_url": "https://fr.wikipedia.org/wiki/Cryptocat"
  },
  {
    "description": "Self-hosted, zero-knowledge, real-time collaborative documents.",
    "notes": "Encryption carried out in your web browser protects the data from the server, the cloud, and the NSA. The secret encryption key is stored in the URL fragment identifier which is never sent to the server but is available to javascript, so by sharing the URL, you give authorization to others who want to participate. Users must still take care to share links over an end-to-end-encrypted medium for best effect.",
    "slug": "cryptpad",
    "url": "https://cryptpad.fr",
    "wikipedia_url": ""
  },
  {
    "description": "Une couche pratique et facile à utiliser au dessus de dm-crypt.",
    "notes": "Gentoo maintient [un guide](https://wiki.gentoo.org/wiki/DM-Crypt_LUKS) pour dm-crypt avec LUKS.\n\nArch Linux maintient également [un guide](https://wiki.archlinux.org/index.php/Dm-crypt_with_LUKS) pour dm-crypt avec LUKS.\n\nSlackware Linux maintient également [un guide](http://ftp.slackware.com/pub/slackware/slackware-14.1/README_CRYPT.TXT) pour dm-crypt avec LUKS.\n\ndm-crypt est disponible pour DragonFly BSD.",
    "slug": "cryptsetup",
    "url": "https://gitlab.com/cryptsetup/cryptsetup",
    "wikipedia_url": "https://fr.wikipedia.org/wiki/Dm-crypt"
  },
  {
    "description": "Distribution GNU/Linux populaire et éthique.",
    "slug": "debian",
    "url": "https://www.debian.org/index.fr.html",
    "wikipedia_url": "https://fr.wikipedia.org/wiki/Debian"
  },
  {
    "description": "Protège du pistage lié à l'accès à des contenus “gratuits”, centralisés. Accélère de nombreuses requêtes (“Google Hosted Libraries” et autres) en les servant localement, allégeant la charge des sites. Complète les bloqueurs de contenus habituels.",
    "notes": "- Protège la confidentialité en contournant les diffuseurs de contenus prétendant offrir des services gratuits.\n- Complète les bloqueurs connus tels que uBlock origin, Privacy Badger et autres.\n- Fonctionne directement tel quel ne nécessitant aucune configuration préalable.\n\nDecentraleyes n'est pas une panacée mais il empêche de nombreux sites de vous contraindre à l'envoi de telles requêtes. Il est possible aussi d'indiquer à Decentraleyes de bloquer les requêtes manquantes.",
    "slug": "decentraleyes",
    "url": "https://decentraleyes.org",
    "wikipedia_url": ""
  },
  {
    "description": "Réseau social distribué géré par la communauté.",
    "slug": "diaspora",
    "url": "https://diasporafoundation.org/",
    "wikipedia_url": "https://fr.wikipedia.org/wiki/Diaspora*"
  },
  {
    "description": "Un outil pour sécuriser les communications entre un client et un résolveur DNS.",
    "slug": "dnscrypt",
    "url": "https://dnscrypt.info",
    "wikipedia_url": ""
  },
  {
    "description": "Recherche web anonyme et non archivée.",
    "notes": "DuckDuckGo is a software-as-a-service (SaaS) hosted around the world that provides you with anonymous search results from [these sources](https://dukgo.com/help/en_US/results/sources). DDG open source components are [available here](https://github.com/duckduckgo).\n\nThere is also a DuckDuckGo hidden service at [3g2upl4pq6kufc4m.onion](http://3g2upl4pq6kufc4m.onion) for Tor users.",
    "slug": "duckduckgo",
    "url": "https://duckduckgo.com/",
    "wikipedia_url": "https://fr.wikipedia.org/wiki/DuckDuckGo"
  },
  {
    "description": "POSIX-compliant enterprise cryptographic stacked filesystem for GNU/Linux.",
    "slug": "ecryptfs",
    "url": "http://ecryptfs.org/",
    "wikipedia_url": "https://en.wikipedia.org/wiki/ECryptfs"
  },
  {
    "description": "Serveur XMPP écrit en Erlang/OTP pour GNU/Linux et macOS.",
    "slug": "ejabberd",
    "url": "http://www.ejabberd.im/",
    "wikipedia_url": "https://fr.wikipedia.org/wiki/Ejabberd"
  },
  {
    "description": "Outil de chiffrement de fichiers avec support pour GNU/Linux, macOS et Windows.",
    "notes": "EncFS  est disponible pour Windows grace au portage “encfs4win”.",
    "slug": "encfs",
    "url": "https://vgough.github.io/encfs/",
    "wikipedia_url": "https://en.wikipedia.org/wiki/EncFS"
  },
  {
    "description": "Un module complémentaire OpenPGP pour Thunderbird et Icedove.",
    "notes": "[Here is a guide](https://securityinabox.org/en/guide/thunderbird/linux/) by Security In A Box to encrypting your email with Mozilla Thunderbird, GNU Privacy Guard (GPG), and Enigmail. Also read the [Email Self-Defense guide](https://emailselfdefense.fsf.org) by the Free Software Foundation to learn how to encrypt your email messages.",
    "slug": "enigmail",
    "url": "https://www.enigmail.net/home/index.php",
    "wikipedia_url": "https://fr.wikipedia.org/wiki/Enigmail"
  },
  {
    "description": "Serveur multi-utilisateurs de tableur.",
    "notes": "The EtherCalc online service encrypts your data transmission with HTTPS, but data may be read by anyone who can guess the URL. Download and run your own EtherCalc server if you care about privacy.",
    "slug": "ethercalc",
    "url": "http://ethercalc.net/",
    "wikipedia_url": "https://fr.wikipedia.org/wiki/EtherCalc"
  },
  {
    "description": "Application libre de messagerie et de calendrier.",
    "slug": "evolution",
    "url": "https://projects.gnome.org/evolution/",
    "wikipedia_url": "https://fr.wikipedia.org/wiki/Evolution_%28logiciel%29"
  },
  {
    "description": "Logithèque d'applications libres et open-source pour Android.",
    "slug": "f-droid",
    "url": "https://f-droid.org/",
    "wikipedia_url": "https://fr.wikipedia.org/wiki/F-Droid"
  },
  {
    "description": "Distribution GNU/Linux rapide, stable et puissante.",
    "slug": "fedora",
    "url": "https://fedoraproject.org/",
    "wikipedia_url": "https://fr.wikipedia.org/wiki/Fedora_%28GNU/Linux%29"
  },
  {
    "description": "Un système d'exploitation libre dérivé de BSD.",
    "slug": "freebsd",
    "url": "https://www.freebsd.org/",
    "wikipedia_url": "https://fr.wikipedia.org/wiki/FreeBSD"
  },
  {
    "description": "FreedomBox intègre la protection de la vie privée sur un simple serveur plug pour que chacun puisse conserver sa vie privée.",
    "slug": "freedombox",
    "url": "https://www.freedomboxfoundation.org/",
    "wikipedia_url": "https://fr.wikipedia.org/wiki/FreedomBox"
  },
  {
    "description": "Réseau décentralisé résistant à la censure.",
    "slug": "freenet",
    "url": "https://freenetproject.org/",
    "wikipedia_url": "https://fr.wikipedia.org/wiki/Freenet"
  },
  {
    "description": "FreeOTP is a two-factor authentication application for systems utilizing one-time password protocols.",
    "notes": "FreeOTP adds a second layer of security for your online accounts. This works by generating one-time passwords on your mobile devices which can be used in conjunction with your normal password to make your login nearly impossible to hack.",
    "slug": "freeotp",
    "url": "https://freeotp.github.io/",
    "wikipedia_url": "https://en.wikipedia.org/wiki/FreeOTP"
  },
  {
    "description": "Logiciel de commutation logicielle multi-plateforme supportant VoIP/SIP.",
    "slug": "freeswitch",
    "url": "https://www.freeswitch.org/",
    "wikipedia_url": "https://fr.wikipedia.org/wiki/FreeSWITCH"
  },
  {
    "description": "Initiative non commerciale et donc la base est ouverte pour supporter les réseaux sans fils gratuit dans le monde.",
    "slug": "freifunk",
    "url": "http://wiki.freifunk.net/Kategorie:English",
    "wikipedia_url": "https://en.wikipedia.org/wiki/Freifunk"
  },
  {
    "description": "Serveur web social gratuit et open-source.",
    "slug": "friendica",
    "url": "http://friendica.com/",
    "wikipedia_url": "https://fr.wikipedia.org/wiki/Friendica"
  },
  {
    "description": "Client léger et rapide de messagerie instantanée pour GNU/Linux et Windows—support de OTR par plugin.",
    "slug": "gajim",
    "url": "http://gajim.org/",
    "wikipedia_url": "https://fr.wikipedia.org/wiki/Gajim"
  },
  {
    "description": "Sous-système de chiffrement de disque inclus dans le système d'exploitation FreeBSD.",
    "slug": "geli",
    "url": "http://www.freebsd.org/cgi/man.cgi?query=geli&sektion=8",
    "wikipedia_url": "https://fr.wikipedia.org/wiki/Geli"
  },
  {
    "description": "Synchronise les dossiers dans chacun des disques de vos ordinateurs.",
    "slug": "git-annex",
    "url": "https://git-annex.branchable.com/",
    "wikipedia_url": ""
  },
  {
    "description": "Serveur git auto-hébergé.",
    "slug": "gitlab",
    "url": "https://about.gitlab.com/",
    "wikipedia_url": "https://fr.wikipedia.org/wiki/GitLab_CE"
  },
  {
    "description": "Mise en œuvre libre d'OpenPGP.",
    "slug": "gnu-privacy-guard",
    "url": "http://www.gnupg.org/",
    "wikipedia_url": "https://fr.wikipedia.org/wiki/GNU_Privacy_Guard"
  },
  {
    "description": "GNUnet est un réseau P2P entièrement libre.",
    "slug": "gnunet",
    "url": "https://gnunet.org/",
    "wikipedia_url": "https://fr.wikipedia.org/wiki/GNUnet"
  },
  {
    "description": "Service git auto-hébergé sans peine écrit en Go.",
    "slug": "gogs",
    "url": "http://gogs.io/",
    "wikipedia_url": ""
  },
  {
    "description": "Gpg4win is an installation package for Windows (XP, Vista, 7 and 8) with software tools and manuals for email and file encryption on behalf of the German Information Security Agency. Gpg4win itself and all tools of Gpg4win are free and open source software. The software mainly uses public-key cryptography for data encryption and digital signatures.",
    "slug": "gpg4win",
    "url": "http://www.gpg4win.org/",
    "wikipedia_url": "https://fr.wikipedia.org/wiki/Gpg4win"
  },
  {
    "description": "Extension OpenPGP pour Apple macOS Mail.",
    "slug": "gpgtools",
    "url": "https://gpgtools.org/",
    "wikipedia_url": "https://fr.wikipedia.org/wiki/GPGTools"
  },
  {
    "description": "Réseaux WiFi ouverts, libres et neutres pour tout le monde.",
    "slug": "guifinet",
    "url": "https://guifi.net/",
    "wikipedia_url": "https://fr.wikipedia.org/wiki/Guifi.net"
  },
  {
    "description": "Cross-platform IRC client.",
    "notes": "HexChat ne porpose par défaut pas d'IRC chiffré. Vous devez activer le greffon (plugin) FiSHLiM pour le chiffrement de message IRC.",
    "slug": "hexchat",
    "url": "http://hexchat.github.io/",
    "wikipedia_url": ""
  },
  {
    "description": "Chiffre vos communications pour des milliers de sites web.",
    "slug": "https-everywhere",
    "url": "https://www.eff.org/https-everywhere",
    "wikipedia_url": "https://fr.wikipedia.org/wiki/HTTPS_Everywhere"
  },
  {
    "description": "Hubzilla is a powerful platform for creating interconnected websites (hubs) featuring a decentralized identity, communications, and permissions framework built using common webserver technology.",
    "slug": "hubzilla",
    "url": "http://hubzilla.org/",
    "wikipedia_url": ""
  },
  {
    "description": "Le projet internet invisible.",
    "slug": "i2p",
    "url": "https://geti2p.net/fr/",
    "wikipedia_url": "https://fr.wikipedia.org/wiki/I2P"
  },
  {
    "description": "Plateforme de messagerie très évolutive et configurable basé sur le MTA qmail.",
    "slug": "indimail",
    "url": "http://www.indimail.org/",
    "wikipedia_url": "https://en.wikipedia.org/wiki/User:Mbhangui/IndiMail"
  },
  {
    "description": "Installer er configurer des packages de serveur email automaticaquement dans GNU/Linux et BSD.",
    "slug": "iredmail",
    "url": "http://www.iredmail.org/",
    "wikipedia_url": ""
  },
  {
    "description": "Chiffrement des discussions texte et vidéo.",
    "slug": "jitsi",
    "url": "https://jitsi.org/",
    "wikipedia_url": "https://fr.wikipedia.org/wiki/Jitsi"
  },
  {
    "description": "Application email libre pour Android avec support PGP.",
    "slug": "k-9-mail",
    "url": "https://github.com/k9mail/k-9",
    "wikipedia_url": "https://en.wikipedia.org/wiki/K-9_Mail"
  },
  {
    "description": "Serveur VoIP/SIP open-source.",
    "slug": "kamailio",
    "url": "http://www.kamailio.org/w/",
    "wikipedia_url": "https://fr.wikipedia.org/wiki/Kamailio"
  },
  {
    "description": "Application for people with extremely high demands on secure personal data management. Saves many different types of information such as usernames, passwords, urls, attachments and comments in one single database.",
    "slug": "keepassxc",
    "url": "https://keepassxc.org/",
    "wikipedia_url": "https://en.wikipedia.org/wiki/KeePassXC"
  },
  {
    "description": "Serveur groupware (logiciel de groupe de travail) pour les mails, calendriers et carnets d'adresses incluant la possibilité de synchroniser les données vers des téléphones portables.",
    "slug": "kolab",
    "url": "https://kolab.org/",
    "wikipedia_url": "https://fr.wikipedia.org/wiki/Kolab"
  },
  {
    "description": "Secure Kolab accounts hosted in Switzerland for 8.99 CHF per month or 4.55 CHF for email-only accounts.",
    "notes": "Kolab Now is hosted in Switzerland and benefits from the [strong Swiss privacy laws](https://KolabNow.com/privacy). It is run exclusively with Free Software and using the service supports the development of [Kolab](https://kolab.org).\n\nAlso, you can export all your data at any time and the terms of service received the best rating from [ToS;DR](http://tosdr.org/#mykolab-com).\n\nThe service uses [Perfect Forward Secrecy](https://kolabnow.com/faq?nid=189) and identifying information [is stripped](https://kolabnow.com/faq?nid=190) from email headers.",
    "slug": "kolabnow",
    "url": "https://kolabnow.com/",
    "wikipedia_url": "https://en.wikipedia.org/wiki/MyKolab"
  },
  {
    "description": "Le client de messagerie de KDE avec le support de GnuPG.",
    "slug": "kontact",
    "url": "https://userbase.kde.org/Kontact",
    "wikipedia_url": "https://fr.wikipedia.org/wiki/Kontact"
  },
  {
    "description": "A GNU/Linux-libre distribution for embedded devices.",
    "slug": "librecmc",
    "url": "https://librecmc.org/",
    "wikipedia_url": "https://fr.wikipedia.org/wiki/LibreCMC"
  },
  {
    "description": "Client vidéo et audio chiffré.",
    "notes": "Encryption is only supported for voice and video, but not for instant messaging.",
    "slug": "linphone",
    "url": "https://www.linphone.org/",
    "wikipedia_url": "https://fr.wikipedia.org/wiki/Linphone"
  },
  {
    "description": "Litecoin (sign : Ł ; code : LTC) is a peer-to-peer cryptocurrency and open source software project released under the MIT/X11 license. Inspired by and technically nearly identical to Bitcoin (BTC), Litecoin creation and transfer is based on an open source protocol and is not managed by any central authority. Litecoin is intended by its developers to improve upon Bitcoin and offers three key differences.",
    "notes": "Please note that new, digital currencies may be very volatile. Complete loss of your investment is possible for a number of reasons (software errors or attacks, identity theft, etc.). Be prepared!",
    "slug": "litecoin",
    "url": "https://litecoin.org/",
    "wikipedia_url": "https://fr.wikipedia.org/wiki/Litecoin"
  },
  {
    "description": "Chiffrement OpenPGP pour webmail.",
    "slug": "mailvelope",
    "url": "http://www.mailvelope.com/",
    "wikipedia_url": ""
  },
  {
    "description": "Globe et atlas virtuels libres du monde.",
    "slug": "marble",
    "url": "http://marble.kde.org/",
    "wikipedia_url": "https://fr.wikipedia.org/wiki/Marble"
  },
  {
    "description": "Statistiques web auto-hébergées et open-source.",
    "slug": "matomo",
    "url": "https://matomo.org/",
    "wikipedia_url": "https://fr.wikipedia.org/wiki/Matomo_(software)"
  },
  {
    "description": "Plate-forme décentralisée de publication média.",
    "notes": "MediaGoblin does not encrypt any of your data by default.",
    "slug": "mediagoblin",
    "url": "http://mediagoblin.org/",
    "wikipedia_url": "https://fr.wikipedia.org/wiki/MediaGoblin"
  },
  {
    "description": "Moteur de recherche qui effectue vos requête sur plusieurs fournisseurs de recherches.",
    "notes": "No use of Cookies, Session IDs or anything else. Free Proxy, server side anonymisation of IP addresses, Tor branch.",
    "slug": "metager",
    "url": "https://metager.de/en/",
    "wikipedia_url": "https://en.wikipedia.org/wiki/MetaGer"
  },
  {
    "description": "Serveur XMPP basé sur Prosody avec des fonctionnalités avancées de gestion/microblogging.",
    "slug": "metronome",
    "url": "https://metronome.im",
    "wikipedia_url": "https://en.wikipedia.org/wiki/Metronome_IM"
  },
  {
    "description": "Monero is a secure, private, untraceable P2P currency.",
    "notes": "Please note that new, digital currencies may be volatile. Complete loss of your investment is possible for a number of reasons (software errors or attacks, identity theft, etc.). Be prepared!",
    "slug": "monero",
    "url": "https://getmonero.org",
    "wikipedia_url": "https://en.wikipedia.org/wiki/Monero_(cryptocurrency)"
  },
  {
    "description": "Serveur de réseau social privé et décentralisé.",
    "slug": "movim",
    "url": "https://movim.eu/",
    "wikipedia_url": "https://en.wikipedia.org/wiki/Movim"
  },
  {
    "description": "Navigateur web libre.",
    "slug": "mozilla-firefox",
    "wikipedia_url": "https://fr.wikipedia.org/wiki/Mozilla_Firefox"
  },
  {
    "description": "Application de messagerie libre.",
    "notes": "Par défaut, Thunderbird ne chiffre pas votre courrier électronique. [Voici un guide](https://securityinabox.org/fr/thunderbird_principale) byppar le collectif Security In A Box  pour chiffrer votre courriel avec Mozilla Thunderbird, GNU Privacy Guard (GPG), et Enigmail.\n\nThunderbird can optionally connect over Tor with the TorBirdy addon.\n\nBien que Thunderbird peut être utilisé comme client de clavardage ou client IRC, il n'offre pas la messagerie chiffrée.",
    "slug": "mozilla-thunderbird",
    "url": "https://www.mozilla.org/en-US/thunderbird/",
    "wikipedia_url": "https://fr.wikipedia.org/wiki/Mozilla_Thunderbird"
  },
  {
    "description": "Discussion vocale chiffrée et à faible latence .",
    "slug": "mumble",
    "url": "http://www.mumble.info/",
    "wikipedia_url": "https://fr.wikipedia.org/wiki/Mumble"
  },
  {
    "description": "DNS distribué basé sur la technologie Bitcoin.",
    "slug": "namecoin",
    "url": "https://namecoin.org",
    "wikipedia_url": "https://en.wikipedia.org/wiki/Namecoin"
  },
  {
    "description": "N'autorise JavaScript, Java et Flash que pour les sites en lesquels vous avez confiance.",
    "slug": "noscript",
    "url": "http://noscript.net/",
    "wikipedia_url": "https://fr.wikipedia.org/wiki/NoScript"
  },
  {
    "description": "A free dynamic DNS service. Use it to update an easy DNS name with your changing/hard-to-remember IP address. As we use the standard protocols, we support a lot of routers / update clients and we even actively help you to configure them. We care for your security, privacy and comfort. You can simply use the free service available on our homepage or, if you prefer, you can also run the software on your own server.",
    "slug": "nsupdate-info",
    "url": "https://nsupdate.info/",
    "wikipedia_url": "https://en.wikipedia.org/wiki/Nsupdate"
  },
  {
    "description": "Surfer sur le Web à travers le réseau Tor avec ce navigateur open-source pour iOS.",
    "slug": "onion-browser",
    "url": "https://mike.tig.as/onionbrowser/",
    "wikipedia_url": ""
  },
  {
    "description": "OpenKeychain est une implémentation d'OpenPGP pour Android.",
    "slug": "open-keychain",
    "url": "https://www.openkeychain.org/",
    "wikipedia_url": ""
  },
  {
    "description": "Le service OSRM (machine à code ouvert pour le routage) est une mise en œuvre C++ d'un moteur de routage à haute performance pour le chemin le plus court dans des réseaux routiers. Licensed under the permissive 2-clause BSD license, OSRM is a free network service. OSRM supports Linux, FreeBSD, Windows, and Mac platform.",
    "notes": "OSRM devrait être installé et exécuté localement sur votre ordinateur pour éviter des fuites potentielles de données en provenance du service en ligne non chiffré.",
    "slug": "open-source-routing-machine",
    "url": "http://project-osrm.org/",
    "wikipedia_url": "https://en.wikipedia.org/wiki/Open_Source_Routing_Machine"
  },
  {
    "description": "Statistiques web open-source.",
    "slug": "open-web-analytics",
    "url": "http://www.openwebanalytics.com/",
    "wikipedia_url": "https://en.wikipedia.org/wiki/Open_Web_Analytics"
  },
  {
    "description": "Un système d'exploitation BSD sécurisé.",
    "slug": "openbsd",
    "url": "http://openbsd.org/",
    "wikipedia_url": "https://fr.wikipedia.org/wiki/OpenBSD"
  },
  {
    "description": "Serveur XMPP multi-plateforme écrit en Java.",
    "slug": "openfire",
    "url": "http://www.igniterealtime.org/projects/openfire/",
    "wikipedia_url": "https://fr.wikipedia.org/wiki/Openfire"
  },
  {
    "description": "Fournisseur DNS Ouvert, démocratique et anti-censure",
    "notes": "OpenNIC has not adopted an official policy concerning log query privacy/anonymization. More information [here](https://wiki.opennic.org/opennic:tier2).",
    "slug": "opennic",
    "url": "https://www.opennic.org/",
    "wikipedia_url": "https://fr.wikipedia.org/wiki/OpenNIC"
  },
  {
    "description": "Carte libre et collaborative du monde.",
    "slug": "openstreetmap",
    "url": "http://www.openstreetmap.org/",
    "wikipedia_url": "https://fr.wikipedia.org/wiki/OpenStreetMap"
  },
  {
    "description": "Client VPN libre.",
    "slug": "openvpn",
    "url": "http://openvpn.net/index.php/open-source.html",
    "wikipedia_url": "https://fr.wikipedia.org/wiki/OpenVPN"
  },
  {
    "description": "A GNU/Linux distribution for embedded devices.",
    "slug": "openwrt",
    "url": "https://openwrt.org/",
    "wikipedia_url": "https://fr.wikipedia.org/wiki/OpenWrt"
  },
  {
    "description": "Proxy Tor pour Android.",
    "slug": "orbot",
    "url": "https://guardianproject.info/apps/orbot/",
    "wikipedia_url": "https://en.wikipedia.org/wiki/Orbot"
  },
  {
    "description": "OsmAnd (OSM Automated Navigation Directions) est une application pour voir et naviguer avec les cartes de OpenStreetMap.",
    "slug": "osmand",
    "url": "http://osmand.net/",
    "wikipedia_url": "https://en.wikipedia.org/wiki/OsmAnd"
  },
  {
    "description": "Password Safe (Android Port). Stores passwords, site URLs, email addresses, notes and much more into encrypted container file, so you only need to remember one master password. Can generate random passwords (with optional site-specific policies).",
    "slug": "passwdsafe",
    "url": "http://passwdsafe.sourceforge.net/",
    "wikipedia_url": ""
  },
  {
    "description": "Simple password manager using gpg and ordinary unix directories.",
    "slug": "password-store",
    "url": "https://www.passwordstore.org/",
    "wikipedia_url": ""
  },
  {
    "description": "Password Safe (Windows/Linux), designed by Bruce Schneier. Stores passwords, site URLs, email addresses, notes and much more into encrypted container file, so you only need to remember one master password. Can generate random passwords (with optional site-specific policies).",
    "slug": "passwordsafe",
    "url": "http://pwsafe.org/",
    "wikipedia_url": "https://en.wikipedia.org/wiki/Password_Safe"
  },
  {
    "description": "Plate-forme libre de galerie photo.",
    "notes": "Piwigo does not encrypt any of your data by default.",
    "slug": "piwigo",
    "url": "http://piwigo.org/",
    "wikipedia_url": "https://fr.wikipedia.org/wiki/Piwigo"
  },
  {
    "description": "Tracking blocker that tries to learn who is spying on you and then blocks these ads and invisible trackers.",
    "notes": "Privacy Badger may be less effective than a classic blacklist based solution such as uBlock or Disconnect. Advertisers can automatically unblock themselves by claiming not to track you.",
    "slug": "privacy-badger",
    "url": "https://www.eff.org/privacybadger",
    "wikipedia_url": "https://fr.wikipedia.org/wiki/Privacy_Badger"
  },
  {
    "description": "Serveur XMPP flexible et léger écrit en Lua.",
    "slug": "prosody",
    "url": "https://prosody.im/",
    "wikipedia_url": "https://fr.wikipedia.org/wiki/Prosody"
  },
  {
    "description": "Client multi-platforme de messagerie instantanée pour utilisateurs avancés avec le support de OTR.",
    "slug": "psi",
    "url": "http://psi-plus.com/",
    "wikipedia_url": "https://fr.wikipedia.org/wiki/Psi_%28messagerie_instantan%C3%A9e%29"
  },
  {
    "description": "Serveur de flux social auto-hébergé.",
    "slug": "pumpio",
    "url": "http://pump.io/",
    "wikipedia_url": "https://fr.wikipedia.org/wiki/Pump.io"
  },
  {
    "description": "Transformez instantanément n’importe quel serveur en une plate-forme de partage de fichiers.",
    "slug": "pydio",
    "url": "http://pyd.io/",
    "wikipedia_url": ""
  },
  {
    "description": "Système d'exploitation basé sur Fedora/Xen qui permet une grande sécurité grâce à l'isolation.",
    "slug": "qubes",
    "url": "https://www.qubes-os.org/",
    "wikipedia_url": "https://en.wikipedia.org/wiki/Qubes_OS"
  },
  {
    "description": "Distribution Android totalement libre basée sur LineageOS.",
    "slug": "replicant",
    "url": "http://replicant.us/",
    "wikipedia_url": "https://fr.wikipedia.org/wiki/Replicant_%28syst%C3%A8me_d%27exploitation%29"
  },
  {
    "description": "Plate-forme libre et sécurisée de communications pair-à-pair.",
    "notes": "Note that RetroShare has not been thoroughly audited by security professionals for possible security issues.\n\nPOur celles et ceux d'entre vous qui n'ont pas de serveur, RetroShare est sans doute la manière la plus simple de débuter votre propre réseau social chiffré.",
    "slug": "retroshare",
    "url": "http://retroshare.net",
    "wikipedia_url": "https://fr.wikipedia.org/wiki/RetroShare"
  },
  {
    "description": "Ring is a secure and distributed voice, video and chat communication platform that requires no centralized server and leaves the power of privacy in the hands of the user.",
    "slug": "ring",
    "url": "https://ring.cx/",
    "wikipedia_url": "https://en.wikipedia.org/wiki/Ring_(software)"
  },
  {
    "description": "Riot is a secure collaboration app for group chat, file transfer and voice/video conferencing built on the decentralized Matrix ecosystem, providing bridges and integrations to centralized services such as IRC, Slack, Gitter, etc",
    "notes": "End-to-end encryption is in beta on Web as of Nov 5th 2016, with other platforms following week of Nov 14th",
    "slug": "riot",
    "url": "https://riot.im/",
    "wikipedia_url": "https://en.wikipedia.org/wiki/Matrix_(communication_protocol)"
  },
  {
    "description": "Comptes de messagerie sécurisée et privée.",
    "notes": "Les services de Riseup peuvent sont également accessibles depuis leurs adresses Tor Hidden Service. Une liste est [disponible ici](https://www.riseup.net/en/tor#riseups-tor-hidden-services).",
    "slug": "riseup",
    "url": "https://riseup.net/fr",
    "wikipedia_url": ""
  },
  {
    "description": "Outil de communication multifonctions et multi-interfaces.",
    "slug": "salut-a-toi",
    "url": "http://sat.goffi.org/",
    "wikipedia_url": ""
  },
  {
    "description": "The personal, minimalist, super-fast, no-database delicious clone.",
    "slug": "shaarli",
    "url": "https://github.com/shaarli/Shaarli/",
    "wikipedia_url": ""
  },
  {
    "description": "A fork of TextSecure with SMS encryption.",
    "slug": "silence",
    "url": "https://silence.im/",
    "wikipedia_url": ""
  },
  {
    "description": "Contrôle de version et synchronisation de fichiers auto-hébergés.",
    "slug": "sparkleshare",
    "url": "http://sparkleshare.org/",
    "wikipedia_url": "https://en.wikipedia.org/wiki/SparkleShare"
  },
  {
    "description": "Recherche web privée et non archivée.",
    "notes": "Startpage is a SaaS hosted in the USA and the Netherlands that provides you with anonymous Google search and image results through a free proxy. Its sibling project ixquick.eu, however, offer results from other search engine.\n\n Ixquick also provides the stand-alone Ixquick Proxy service that allows users to open search results via proxy.\n\n As of February 19, 2015, Startpage.com is the default search engine in the Tor Browser.",
    "slug": "startpage",
    "url": "https://startpage.com/",
    "wikipedia_url": "https://fr.wikipedia.org/wiki/Ixquick#Startpage"
  },
  {
    "description": "Continuous decentralized file synchronization.",
    "notes": "Syncthing is a self-hosted file sharing platform, so none of your data is ever stored anywhere other than on your computers. There is no central server that might be compromised, legally or illegally. All communication is secured using TLS. The encryption used includes perfect forward secrecy to prevent any eavesdropper from gaining access to your data. Every node is identified by a strong cryptographic certificate. Only nodes you have explicitly allowed can connect to your cluster.",
    "slug": "syncthing",
    "url": "https://syncthing.net/",
    "wikipedia_url": "https://fr.wikipedia.org/wiki/Syncthing"
  },
  {
    "description": "Système de stockage cloud libre et gratuit.",
    "slug": "tahoe-lafs",
    "url": "https://tahoe-lafs.org/trac/tahoe-lafs",
    "wikipedia_url": "https://en.wikipedia.org/wiki/Tahoe-LAFS"
  },
  {
    "description": "Live CD/USB conçu pour protéger votre anonymat et votre vie privée.",
    "slug": "tails",
    "url": "https://tails.boum.org/index.fr.html",
    "wikipedia_url": "https://fr.wikipedia.org/wiki/Tails_%28syst%C3%A8me_d%27exploitation%29"
  },
  {
    "description": "Serveur XMPP multi-plateforme écrit en Java.",
    "slug": "tigase",
    "url": "http://www.tigase.org/",
    "wikipedia_url": "https://fr.wikipedia.org/wiki/Tigase"
  },
  {
    "description": "Démon de logiciel libre qui utilise le tunneling et le chiffrement pour créer un réseau privé sécurisé",
    "slug": "tinc",
    "url": "http://tinc-vpn.org/",
    "wikipedia_url": "https://en.wikipedia.org/wiki/Tinc_%28protocol%29"
  },
  {
    "description": "Tor (previously TOR, an acronym for The Onion Router)[not in citation given] is free software for enabling online anonymity. Tor directs Internet traffic through a free, worldwide, volunteer network consisting of more than four thousand relays to conceal a user's location or usage from anyone conducting network surveillance or traffic analysis. Using Tor makes it more difficult to trace Internet activity, including “visits to Web sites, online posts, instant messages, and other communication forms”, back to the user and is intended to protect the personal privacy of users, as well as their freedom and ability to conduct confidential business by keeping their internet activities from being monitored.",
    "slug": "tor",
    "url": "https://www.torproject.org/",
    "wikipedia_url": "https://fr.wikipedia.org/wiki/Tor_%28r%C3%A9seau%29"
  },
  {
    "description": "Navigation chiffrée et anonyme.",
    "slug": "tor-browser",
    "url": "https://www.torproject.org/projects/torbrowser.html.en",
    "wikipedia_url": "https://fr.wikipedia.org/wiki/Tor_Browser"
  },
  {
    "description": "Un module complémentaire qui connecte Thunderbird/Icedove via Tor.",
    "notes": " TorBirdy is in beta and should be considered experimental. Please make sure that before using it, you are aware of the known issues and leaks by reading the “Before using TorBirdy” and “Known TorBirdy” Issues sections on the project website.",
    "slug": "torbirdy",
    "url": "https://trac.torproject.org/projects/tor/wiki/torbirdy",
    "wikipedia_url": ""
  },
  {
    "description": "Free and open-source, peer-to-peer, encrypted instant messaging and video calling software. The stated goal of the project is to provide secure yet easily accessible communication for everyone.",
    "notes": "Tox is a new encrypted communications system in the making. It is built upon a well known encryption library and has great potential, but it has not yet been audited by security professionals. Use at your own risk. If you decide to try out Tox, be sure to leave them feedback.\n\nTox does not yet have an official GUI but [several are recommended by the development team](https://wiki.tox.chat/Binaries).",
    "slug": "tox",
    "url": "https://tox.chat",
    "wikipedia_url": "https://fr.wikipedia.org/wiki/Tox_%28logiciel%29"
  },
  {
    "description": "Tunnelblick is a free, open source graphic user interface for OpenVPN on macOS. It provides easy control of OpenVPN client and/or server connections.",
    "slug": "tunnelblick",
    "url": "https://tunnelblick.net/",
    "wikipedia_url": ""
  },
  {
    "description": "An efficient blocker for Firefox and Chromium. Fast and lean.",
    "slug": "ublock-origin",
    "url": "https://github.com/gorhill/uBlock",
    "wikipedia_url": "https://en.wikipedia.org/wiki/UBlock#uBlock_Origin"
  },
  {
    "description": "Meta search engine that protects privacy and intends to return neutral search results.",
    "notes": "Unbubble is a web search engine from Germany providing results in eight languages. Its primary goal is to create neutral search results. It takes strong measures to protect privacy.",
    "slug": "unbubble",
    "url": "https://unbubble.eu",
    "wikipedia_url": ""
  },
  {
    "description": "Client-side encrypted image host web server.",
    "notes": "Up1 is a simple host that client-side encrypts images, text, and other data, and stores them, with the server knowing nothing about the contents. It has the ability to view images, text with syntax highlighting, short videos, and arbitrary binaries as downloadables.",
    "slug": "up1",
    "url": "https://github.com/Upload/Up1/blob/master/README.md",
    "wikipedia_url": ""
  },
  {
    "description": "wallabag is a self hostable application for saving web pages. Unlike other services, wallabag is free (as in freedom) and open source.",
    "slug": "wallabag",
    "url": "https://www.wallabag.org/",
    "wikipedia_url": ""
  },
  {
    "description": "Client de chat extensible et customisable pour IRC et XMPP/Jabber.",
    "slug": "weechat",
    "url": "http://www.weechat.org/",
    "wikipedia_url": "https://fr.wikipedia.org/wiki/WeeChat"
  },
  {
    "description": "The most comprehensive and integrated Free / Libre / Open Source software suite ever developed.",
    "slug": "wikisuite",
    "url": "http://wikisuite.org/",
    "wikipedia_url": ""
  },
  {
    "description": "CMS libre pour site web et blog.",
    "notes": "WordPress does not encrypt any of your data by default.\n\nUsing avatars in WordPress will activate Gravatar, which which will send your email address to gravatar.com. Avatars are activated by default and can be turned off under “Settings > Discussion > Avatars”.\n\nThe default WordPress themes force your visitors to download Google Fonts. Consider switching to a completely self-hosted theme. You can also install the plugin <a href='http://wordpress.org/plugins/disable-google-fonts/'>“Disable Google Fonts”</a> to remove this vulnerability.",
    "slug": "wordpress",
    "url": "https://wordpress.org/",
    "wikipedia_url": "https://fr.wikipedia.org/wiki/WordPress"
  },
  {
    "description": "CMS libre pour site web média.",
    "notes": "Zenphoto does not encrypt any of your data by default.",
    "slug": "zenphoto",
    "url": "http://www.zenphoto.org/",
    "wikipedia_url": ""
  }
]
